{
    "fluentMethods": true,
    "relationships": [
        {
            "relationshipName": "clientCampaign",
            "otherEntityName": "clientCampaign",
            "relationshipType": "many-to-one",
            "otherEntityField": "name"
        },
        {
            "relationshipName": "user",
            "otherEntityName": "user",
            "relationshipType": "many-to-one",
            "otherEntityField": "login",
            "ownerSide": true,
            "otherEntityRelationshipName": "campaignPortalUser"
        }
    ],
    "fields": [
        {
            "fieldName": "email",
            "fieldType": "String",
            "fieldValidateRules": [
                "required"
            ]
        },
        {
            "fieldName": "emailOutcome",
            "fieldType": "Boolean"
        },
        {
            "fieldName": "emailDaily",
            "fieldType": "Boolean"
        }
    ],
    "changelogDate": "20181013131035",
    "dto": "mapstruct",
    "service": "serviceClass",
    "entityTableName": "campaign_portal_user",
    "jpaMetamodelFiltering": true,
    "pagination": "pagination"
}
