{
    "fluentMethods": true,
    "relationships": [],
    "fields": [
        {
            "fieldName": "name",
            "fieldType": "String",
            "fieldValidateRules": [
                "required"
            ]
        },
        {
            "fieldName": "excerpt",
            "fieldType": "String"
        }
    ],
    "changelogDate": "20181104133551",
    "dto": "mapstruct",
    "service": "serviceClass",
    "entityTableName": "client_campaign_script",
    "jpaMetamodelFiltering": true,
    "pagination": "pagination"
}
