{
    "fluentMethods": true,
    "relationships": [
        {
            "relationshipName": "createdBy",
            "otherEntityName": "user",
            "relationshipType": "many-to-one",
            "otherEntityField": "login",
            "ownerSide": true,
            "otherEntityRelationshipName": "clientCampaign"
        },
        {
            "relationshipName": "template",
            "otherEntityName": "clientCampaignTemplate",
            "relationshipType": "many-to-one",
            "otherEntityField": "name"
        },
        {
            "relationshipName": "clientCompany",
            "otherEntityName": "clientCompany",
            "relationshipType": "many-to-one",
            "otherEntityField": "name"
        },
        {
            "relationshipName": "managers",
            "otherEntityName": "user",
            "relationshipType": "many-to-many",
            "otherEntityField": "login",
            "ownerSide": true,
            "otherEntityRelationshipName": "clientCampaign"
        },
        {
            "relationshipName": "clientList",
            "otherEntityName": "clientList",
            "relationshipType": "many-to-many",
            "otherEntityField": "name",
            "ownerSide": true,
            "otherEntityRelationshipName": "clientList"
        },
        {
            "relationshipName": "emailTemplate",
            "otherEntityName": "emailTemplate",
            "relationshipType": "many-to-many",
            "otherEntityField": "name",
            "ownerSide": true,
            "otherEntityRelationshipName": "clientCampaign"
        }
    ],
    "fields": [
        {
            "fieldName": "name",
            "fieldType": "String",
            "fieldValidateRules": [
                "required"
            ]
        },
        {
            "fieldName": "createdDate",
            "fieldType": "ZonedDateTime"
        }
    ],
    "changelogDate": "20180828133937",
    "dto": "mapstruct",
    "service": "serviceClass",
    "entityTableName": "client_campaign",
    "jpaMetamodelFiltering": true,
    "pagination": "pagination"
}
