{
    "fluentMethods": true,
    "relationships": [
        {
            "relationshipName": "user",
            "otherEntityName": "user",
            "relationshipType": "many-to-one",
            "otherEntityField": "login",
            "ownerSide": true,
            "otherEntityRelationshipName": "consoleStats"
        }
    ],
    "fields": [
        {
            "fieldName": "calls",
            "fieldType": "Long"
        },
        {
            "fieldName": "skips",
            "fieldType": "Long"
        },
        {
            "fieldName": "pending",
            "fieldType": "Long"
        },
        {
            "fieldName": "stamp",
            "fieldType": "LocalDate"
        },
        {
            "fieldName": "dmContact",
            "fieldType": "Long"
        },
        {
            "fieldName": "leadSales",
            "fieldType": "Long"
        },
        {
            "fieldName": "pipelineOpps",
            "fieldType": "Long"
        }
    ],
    "changelogDate": "20191024181326",
    "dto": "mapstruct",
    "service": "serviceClass",
    "entityTableName": "console_stats",
    "jpaMetamodelFiltering": true,
    "pagination": "pagination"
}
