{
    "fluentMethods": true,
    "relationships": [
        {
            "relationshipName": "template",
            "otherEntityName": "clientCampaignTemplate",
            "relationshipType": "many-to-one",
            "relationshipValidateRules": [
                "required"
            ],
            "otherEntityField": "name"
        },
        {
            "relationshipName": "outcomeSubReason",
            "otherEntityName": "outcomeSubReason",
            "relationshipType": "many-to-one",
            "otherEntityField": "name"
        }
    ],
    "fields": [
        {
            "fieldName": "name",
            "fieldType": "String",
            "fieldValidateRules": [
                "required"
            ]
        }
    ],
    "changelogDate": "20181010174620",
    "dto": "mapstruct",
    "service": "serviceClass",
    "entityTableName": "outcome",
    "jpaMetamodelFiltering": true,
    "pagination": "pagination"
}
